{
    "engine": {
        "name": "이미지 자막 인식",
        "simpleName": "이미지 자막 인식",
        "url": "182.162.19.16:5000/VCASubtitleExtract",
        "method": "post",
        "requestType": "form",
        "inputs": [{
            "name": "scene_img",
            "type": "image",
            "fmt": "png | jpg"
        }],
        "params": [],
        "groupParams": [],
        "responseType": "form",
        "formOutputs": {
            "image": ["result_img"],
            "text": ["result_text"]
        }
    }
}