{
    "engine": {
        "name": "문서 이미지 분석_병원 영수증 인식",
        "simpleName": "병원 영수증 인식",
        "url": "182.162.19.16:5000/HospitalReceipt",
        "method": "post",
        "requestType": "form",
        "inputs": [
            {
                "name": "receipt_img",
                "type": "image",
                "fmt": "png | jpg"
            }
        ],
        "params": [],
        "groupParams": [],
        "responseType": "form",
        "formOutputs": {
            "image": ["result_img"],
            "text": ["result_csv"]
        }
    }
}