{
    "engine": {
        "name": "텍스트 제거",
        "simpleName": "텍스트 제거",
        "url": "https://api.maum.ai/api/txtr/",
        "method": "post",
        "requestType": "form",
        "inputs": [{
            "name": "file",
            "type": "image",
            "fmt": "png | jpg"
        }],
        "params": [],
        "groupParams": [],
        "responseType": "image",
        "outputs": {}
    }
}