<svg xmlns="http://www.w3.org/2000/svg" width="30" height="23" viewBox="0 0 30 23">
    <path fill="#F77A8D" fill-rule="evenodd" d="M26.25 18.75v-6.562L21.122 7.06c-.274-.275-.72-.275-.994 0L12.187 15l-3.252-3.253c-.275-.274-.72-.274-.995 0l-4.19 4.19v2.813h22.5zM3.281 6.562c0 1.813 1.469 3.282 3.282 3.282 1.812 0 3.281-1.469 3.281-3.282 0-1.812-1.469-3.281-3.281-3.281-1.813 0-3.282 1.469-3.282 3.281zM2.813 22.5C1.259 22.5 0 21.241 0 19.687V2.812C0 1.259 1.259 0 2.813 0h24.374C28.741 0 30 1.259 30 2.812v16.875c0 1.554-1.259 2.813-2.813 2.813H2.813z"/>
</svg>
